[
    {
        "id": 1,
        "clientid": 1,
        "price": 200,
        "checkindate": "2021-08-04 15:00:00",
        "checkoutdate": "2021-08-11 15:00:00",
        "deleted_at": null
    },
    {
        "id": 2,
        "clientid": 2,
        "price": 100,
        "checkindate": "2021-08-05 15:00:00",
        "checkoutdate": "2021-08-08 15:00:00",
        "deleted_at": null
    },
    {
        "id": 3,
        "clientid": 3,
        "price": 400,
        "checkindate": "2021-08-05 15:00:00",
        "checkoutdate": "2021-08-08 15:00:00",
        "deleted_at": null
    }
]